{
  "SeenChaptersIsEnabled": false,
  "SeenChaptersFontColor": "#ffffff",

  "BufferBarEnabled": true,
  "BufferBarOpacity": 1,
  "BufferBarColor": "#7E5BEF",
  "BufferBarImagePath": "dist/images/wllp_timeline_buffer.png",
  "BufferBarImagePosition": "bottom",

  "ClosedCaptionsSupported": true,
  "MultiLanguageSupported": true,

  "FullScreenEnabled": true
}